<svg width="256" height="256" viewBox="0 0 256 256" fill="none" xmlns="http://www.w3.org/2000/svg">
<g clip-path="url(#clip0)">
<rect width="256" height="256" fill="#0C0D14"/>
<ellipse cx="43" cy="265.5" rx="93" ry="93.5" fill="#1D1E2C"/>
<circle cx="87" cy="322" r="121" fill="#161621"/>
<path d="M81 264C81 327.513 29.5127 379 -34 379C-97.5127 379 -149 327.513 -149 264C-149 200.487 -97.5127 149 -34 149C29.5127 149 81 200.487 81 264ZM-126 264C-126 314.81 -84.8102 356 -34 356C16.8102 356 58 314.81 58 264C58 213.19 16.8102 172 -34 172C-84.8102 172 -126 213.19 -126 264Z" fill="#383A56"/>
<path d="M0 206L256 256H0V206Z" fill="#383B57"/>
<path d="M219.348 235H225L210.651 277H205L219.348 235Z" fill="#00CF6B"/>
<path d="M208.348 235H214L199.651 277H194L208.348 235Z" fill="#0D00E4"/>
<path d="M230.348 235H236L221.651 277H216L230.348 235Z" fill="#FF353C"/>
<path d="M241.348 235H247L232.651 277H227L241.348 235Z" fill="#F5F5F5"/>
<path d="M2.49672 165.59C-0.796613 166.977 -4.52328 167.67 -8.68328 167.67C-16.9166 167.67 -22.2466 165.46 -24.6733 161.04C-26.4933 158.093 -27.4033 152.417 -27.4033 144.01V107.22H-38.5833V94.35H-27.4033V78.88L-13.3633 74.33V94.35H0.416723V107.22H-13.3633V147.65C-13.3633 152.677 -11.0666 155.19 -6.47328 155.19C-3.43994 155.19 -0.796612 154.627 1.45672 153.5L2.49672 165.59Z" fill="#1D1F32"/>
<path d="M-3.16141 100.18C-3.16141 98.78 -2.83474 97.5667 -2.18141 96.54C-1.43474 95.5133 -0.454739 95 0.758594 95H5.51859V77.78C5.51859 76.5667 5.98526 75.6333 6.91859 74.98C7.94526 74.3267 9.15859 74 10.5586 74C14.1053 74 15.8786 75.26 15.8786 77.78V95H38.2786C39.4919 95 40.4253 95.5133 41.0786 96.54C41.7319 97.4733 42.0586 98.64 42.0586 100.04C42.0586 103.587 40.7986 105.36 38.2786 105.36H15.8786V138.82C15.8786 149.273 19.8453 154.5 27.7786 154.5C31.1386 154.5 34.0319 153.567 36.4586 151.7C38.9786 149.833 40.2386 146.567 40.2386 141.9C40.2386 140.593 40.7519 139.52 41.7786 138.68C42.8986 137.84 44.2053 137.42 45.6986 137.42C47.0986 137.42 48.2653 137.84 49.1986 138.68C50.1319 139.427 50.5986 140.547 50.5986 142.04C50.5053 149.413 48.2653 155.06 43.8786 158.98C39.5853 162.9 34.2186 164.86 27.7786 164.86C12.9386 164.86 5.51859 154.92 5.51859 135.04V105.36H0.758594C-1.85474 105.36 -3.16141 103.633 -3.16141 100.18Z" fill="#1B1C32"/>
<path d="M85.9426 95.42C85.9426 97.38 85.6626 99.1533 85.1026 100.74C84.5426 102.327 83.7492 103.493 82.7226 104.24H67.7426V149.32C67.7426 152.213 68.1626 154.267 69.0026 155.48C69.8426 156.693 71.1959 157.3 73.0626 157.3C75.8626 157.3 79.0359 155.807 82.5826 152.82L85.2426 156.46C82.8159 159.633 79.9226 162.2 76.5626 164.16C73.2026 166.027 70.0292 166.96 67.0426 166.96C63.2159 166.96 60.2292 165.793 58.0826 163.46C56.0292 161.033 55.0026 157.72 55.0026 153.52V104.24H42.6826C42.6826 101.72 42.8692 100.087 43.2426 99.34C43.6159 98.5933 44.5492 98.0333 46.0426 97.66C50.9892 96.3533 54.4892 94.2533 56.5426 91.36C58.6892 88.3733 60.2292 84.5467 61.1626 79.88C61.4426 78.3867 61.9092 77.4533 62.5626 77.08C63.3092 76.7067 65.0359 76.52 67.7426 76.52V95.42H85.9426Z" fill="#292A3D"/>
<path d="M97.2588 114.377C97.2588 108.954 96.7461 106.242 95.7207 106.242H92.2344C91.4824 106.242 91.1064 105.775 91.1064 104.841C91.1064 104.362 91.3343 103.895 91.79 103.439L104.539 85.666C105.086 84.8229 105.69 84.4014 106.351 84.4014C107.376 84.4014 107.889 84.9596 107.889 86.0762L107.068 99.5088C107.068 100.01 107.114 100.306 107.205 100.397C107.296 100.466 107.627 100.5 108.196 100.5H122.62C123.258 100.5 123.577 100.785 123.577 101.354C123.577 101.468 123.44 102.118 123.167 103.303C122.894 104.465 122.597 105.228 122.278 105.593C121.982 105.935 121.526 106.105 120.911 106.105H107.615C107.251 106.105 107.068 108.111 107.068 112.121V138.986C107.068 142.404 107.422 144.478 108.128 145.207C109.45 146.574 111.045 147.258 112.913 147.258C114.804 147.258 116.593 147.076 118.279 146.711C119.988 146.346 121.424 145.982 122.586 145.617C123.771 145.23 124.557 145.036 124.944 145.036C125.354 145.036 125.56 145.48 125.56 146.369C125.56 147.235 125.514 147.748 125.423 147.907C125.354 148.044 124.819 148.488 123.816 149.24C122.814 149.969 120.398 151.063 116.57 152.521C112.765 153.957 109.814 154.675 107.718 154.675C105.621 154.675 103.855 154.367 102.42 153.752C101.007 153.137 99.9134 152.316 99.1387 151.291C97.7031 149.377 96.9854 147.189 96.9854 144.729L97.2588 114.377Z" fill="#1A1B2D"/>
<path d="M126.826 103.12V97.24L137.746 94.3L141.106 79.74H149.226V95.7H168.966V99.62L167.006 103.12H149.226V149.04C149.226 151.84 149.739 153.707 150.766 154.64C151.886 155.573 153.706 156.04 156.226 156.04C158.466 156.04 160.706 155.807 162.946 155.34C165.279 154.78 166.773 154.407 167.426 154.22L168.826 158.7C169.013 158.7 168.173 159.353 166.306 160.66C164.533 161.873 162.433 162.993 160.006 164.02C157.579 165.047 155.199 165.56 152.866 165.56C147.266 165.56 143.346 164.253 141.106 161.64C138.866 158.933 137.746 155.06 137.746 150.02V103.12H126.826Z" fill="#1A1B2D"/>
<path d="M196.888 162.4C191.661 162.4 187.554 160.907 184.568 157.92C181.581 154.933 180.088 150.36 180.088 144.2V100.8H170.288V95.2H180.088V82.6L187.088 74.2H192.688V95.2H209.488V100.8H192.688V144.2C192.688 152.6 195.954 156.8 202.488 156.8C204.728 156.8 206.594 156.567 208.088 156.1C209.674 155.633 211.308 154.933 212.988 154L214.388 156.8C212.241 158.387 209.861 159.74 207.248 160.86C204.634 161.887 201.181 162.4 196.888 162.4Z" fill="#232435"/>
<path d="M236.828 161.367C227.486 161.367 222.814 155.055 222.814 142.432V102.1H209.826C209.826 97.0866 210.122 94.0788 210.715 93.0762C211.353 92.0736 212.036 91.5723 212.766 91.5723H213.449C219.055 91.5723 222.427 91.0482 223.566 90C224.022 89.6354 224.273 89.1797 224.318 88.6328L227.258 73.5254C227.805 71.0189 230.767 69.7656 236.145 69.7656V91.5723H254.602C255.741 91.5723 256.311 92.9167 256.311 95.6055C256.265 98.2487 255.695 100.208 254.602 101.484C254.283 101.895 253.872 102.1 253.371 102.1H236.145V142.432C236.145 147.536 237.648 150.088 240.656 150.088C244.074 150.088 246.49 149.837 247.902 149.336C249.361 148.789 250.363 148.516 250.91 148.516C251.411 148.516 251.913 148.698 252.414 149.062C252.961 149.382 253.417 149.814 253.781 150.361C254.556 151.546 254.943 152.777 254.943 154.053C254.943 155.42 254.51 156.309 253.645 156.719C247.766 159.818 242.16 161.367 236.828 161.367Z" fill="#292A41"/>
<path d="M300.703 164.607C294.186 167.114 287.715 168.367 281.289 168.367C274.954 168.276 270.329 166.886 267.412 164.197C264.131 161.189 262.49 156.199 262.49 149.227C262.49 148.771 262.49 148.315 262.49 147.859C262.49 147.404 262.513 146.925 262.559 146.424L262.9 97.5469H250.049L250.391 87.9082H263.379C263.379 80.2975 263.105 74.8516 262.559 71.5703L274.316 69.6562L274.795 87.9082H296.396V97.5469H274.59L274.316 145.672C274.134 150.275 274.544 153.305 275.547 154.764C276.549 156.222 277.666 157.156 278.896 157.566C280.173 157.931 282.201 158.113 284.98 158.113C287.806 158.113 292.363 157.065 298.652 154.969L300.703 164.607Z" fill="#27293E"/>
<path d="M161.295 172V163.615C156.268 164.438 152.043 164.568 148.62 164.005C145.24 163.442 142.77 161.708 141.21 158.805C140.386 157.288 139.931 155.555 139.845 153.605C139.801 151.612 139.78 149.142 139.78 146.195V109.99H161.295V101.8H139.78V82.3H130.29V101.8H115.275V109.99H130.29V146.585C130.29 150.008 130.333 153.063 130.42 155.75C130.55 158.437 131.243 161.058 132.5 163.615C134.06 166.735 136.335 169.032 139.325 170.505C142.358 171.978 145.781 172.802 149.595 172.975C153.451 173.148 157.351 172.823 161.295 172Z" fill="#2B2E43"/>
<path d="M146.084 164.04C140.884 164.04 136.876 162.588 134.059 159.685C131.286 156.782 129.899 152.6 129.899 147.14V106.84H121.969C121.276 106.84 120.691 106.645 120.214 106.255C119.737 105.822 119.499 105.172 119.499 104.305V99.69L130.289 98.325L132.954 77.98C133.084 77.33 133.366 76.81 133.799 76.42C134.276 75.9867 134.882 75.77 135.619 75.77H141.469V98.455H160.514V106.84H141.469V146.36C141.469 149.133 142.141 151.192 143.484 152.535C144.827 153.878 146.561 154.55 148.684 154.55C149.897 154.55 150.937 154.398 151.804 154.095C152.714 153.748 153.494 153.38 154.144 152.99C154.794 152.6 155.336 152.253 155.769 151.95C156.246 151.603 156.657 151.43 157.004 151.43C157.611 151.43 158.152 151.798 158.629 152.535L162.009 158.06C160.016 159.923 157.611 161.397 154.794 162.48C151.977 163.52 149.074 164.04 146.084 164.04Z" fill="#1D1E2C"/>
<path d="M164.094 78.5234V95.8184H180.5V101.902H164.162V136.15C164.162 138.475 164.185 140.571 164.23 142.439C164.276 144.262 164.481 145.835 164.846 147.156C165.256 148.478 165.894 149.503 166.76 150.232C167.626 150.916 168.879 151.258 170.52 151.258C171.158 151.258 171.796 151.144 172.434 150.916C173.072 150.643 173.618 150.21 174.074 149.617C174.576 149.025 174.963 148.273 175.236 147.361C175.555 146.404 175.715 145.242 175.715 143.875L181.936 143.26C181.936 145.949 181.548 148.25 180.773 150.164C180.044 152.078 179.042 153.65 177.766 154.881C176.535 156.066 175.077 156.954 173.391 157.547C171.704 158.139 169.927 158.436 168.059 158.436C164.868 158.436 162.271 157.911 160.266 156.863C158.306 155.815 156.757 154.38 155.617 152.557C154.523 150.688 153.771 148.41 153.361 145.721C152.951 143.032 152.746 140.047 152.746 136.766V101.902H141.535V96.502C142.674 96.4564 143.951 96.388 145.363 96.2969C146.776 96.1602 148.12 96.0462 149.396 95.9551C150.9 95.8184 152.404 95.6816 153.908 95.5449C153.954 95.2259 154.022 94.6562 154.113 93.8359C154.204 92.9701 154.296 91.9902 154.387 90.8965C154.478 89.7572 154.592 88.5951 154.729 87.4102C154.865 86.1797 154.979 85.0632 155.07 84.0605C155.161 83.0124 155.23 82.1465 155.275 81.4629C155.367 80.7337 155.412 80.3464 155.412 80.3008L164.094 78.5234Z" fill="#1C1E2E"/>
<path d="M124.587 166.56C121.207 166.56 118.347 166.04 116.007 165C113.754 163.96 111.89 162.53 110.417 160.71C109.03 158.89 108.034 156.68 107.427 154.08C106.82 151.48 106.517 148.62 106.517 145.5V110.53H97.1571V102.47L107.037 101.82L108.337 84.14H117.307V101.82H134.337V110.53H117.307V145.63C117.307 149.53 118 152.563 119.387 154.73C120.86 156.81 123.417 157.85 127.057 157.85C128.184 157.85 129.397 157.677 130.697 157.33C131.997 156.983 133.167 156.593 134.207 156.16L136.287 164.22C134.554 164.827 132.647 165.347 130.567 165.78C128.574 166.3 126.58 166.56 124.587 166.56Z" fill="#161621"/>
<path d="M98.6338 158.573C103.289 158.573 108.134 157.579 113.17 155.59C114.693 156.521 115.54 158.002 115.709 160.033C108.261 165.535 102.083 168.285 97.1738 168.285C91.4186 168.285 87.0387 166.381 84.0342 162.572C81.4105 159.229 80.0986 154.701 80.0986 148.988V109.062H71.7832C71.4447 108.342 71.2754 107.623 71.2754 106.903C71.2754 106.015 71.5928 105.168 72.2275 104.364L81.4951 101.127L86.1289 83.9883H90.4453V102.206C95.1426 102.206 102.506 101.994 112.535 101.571C112.535 101.783 112.556 101.994 112.599 102.206L112.662 103.793C112.662 106.12 112.154 107.877 111.139 109.062H90.4453V148.48C90.4453 151.316 90.9954 153.432 92.0957 154.828C94 157.325 96.1794 158.573 98.6338 158.573Z" fill="#1E1E29"/>
<path d="M112.899 100.6H136.539V109.96H112.899V138.76C112.899 141.88 113.139 144.48 113.619 146.56C114.099 148.56 114.819 150.16 115.779 151.36C116.739 152.48 117.939 153.28 119.379 153.76C120.819 154.24 122.499 154.48 124.419 154.48C127.779 154.48 130.459 154.12 132.459 153.4C134.539 152.6 135.979 152.04 136.779 151.72L138.939 160.96C137.819 161.52 135.859 162.2 133.059 163C130.259 163.88 127.059 164.32 123.459 164.32C119.219 164.32 115.699 163.8 112.899 162.76C110.179 161.64 107.979 160 106.299 157.84C104.619 155.68 103.419 153.04 102.699 149.92C102.059 146.72 101.739 143.04 101.739 138.88V83.2L112.899 81.28V100.6Z" fill="#222434"/>
<path d="M131.555 79.6875V96.3184H144.377V105.396H131.555V147.988C131.555 150.739 132.126 152.812 133.269 154.209C134.411 155.563 136.358 156.24 139.108 156.24C140.463 156.24 142.325 155.986 144.694 155.479V165C141.605 165.846 138.601 166.27 135.681 166.27C130.433 166.27 126.477 164.683 123.811 161.509C121.145 158.335 119.812 153.828 119.812 147.988V105.396H107.307V96.3184H119.812V79.6875H131.555Z" fill="#F5F5F5"/>
</g>
<defs>
<clipPath id="clip0">
<rect width="256" height="256" fill="white"/>
</clipPath>
</defs>
</svg>
